CORPORATE_IDENTIFICATION_NUMBER,COMPANY_NAME,COMPANY_STATUS,COMPANY_CLASS,COMPANY_CATEGORY,COMPANY_SUB_CATEGORY,DATE_OF_REGISTRATION,REGISTERED_STATE,AUTHORIZED_CAP,PAIDUP_CAPITAL,INDUSTRIAL_CLASS,PRINCIPAL_BUSINESS_ACTIVITY_AS_PER_CIN,REGISTERED_OFFICE_ADDRESS,REGISTRAR_OF_COMPANIES,EMAIL_ADDR,LATEST_YEAR_ANNUAL_RETURN,LATEST_YEAR_FINANCIAL_STATEMENT
U01222WB1949PTC017577,BAJORIA AGENCY PVT LTD,Active,Private,Company limited by Shares,Non-govt company,02-02-1949,West Bengal,2500000,0,`01222,Agriculture and Allied Activities,174 MAHATMA GANDHI ROAD       KOLKATA   WB IN 700007,RoC-Kolkata,skb.1950@rediffmail.com,31-03-2017,31-03-2017
U01222WB1950PTC018847,HURRIS CHUNDER BOSE & CO PVT LTD,Strike Off,Private,Company limited by Shares,Non-govt company,25-05-1950,West Bengal,100000,3000,`01222,Agriculture and Allied Activities,43 BRINDABAN BASAK ST       KOLKATA   WB IN 700005,RoC-Kolkata,NA,NA,NA
U01222WB1965PTC026448,PROGRESSIVE POULTRY PVT LTD,Strike Off,Private,Company limited by Shares,Non-govt company,26-04-1965,West Bengal,100000,18000,`01222,Agriculture and Allied Activities,16/3  GARIAHAT ROAD       KOLKATA   WB IN 700019,RoC-Kolkata,NA,NA,NA
U01222WB1965PTC026590,SALBANI AGRICULTURAL FIRM & INDUSTRIES P VT LTD,Strike Off,Private,Company limited by Shares,Non-govt company,02-09-1965,West Bengal,100000,24000,`01222,Agriculture and Allied Activities,6/1 IBRAHIMPUR ROAD       KOLKATA   WB IN 700032,RoC-Kolkata,NA,NA,NA
U01222WB1968PTC027381,DAWN FOOD FARMING PVT LTD,Strike Off,Private,Company limited by Shares,Non-govt company,09-10-1968,West Bengal,200000,950,`01222,Agriculture and Allied Activities,19A JAWHARLAL NEHERU ROAD       KOLKATA   WB IN 700013,RoC-Kolkata,NA,NA,NA
U01222WB1970PTC027657,JASAIDI CERAMICS PVT LTD,Active,Private,Company limited by Shares,Non-govt company,12-02-1970,West Bengal,500000,270000,`01222,Agriculture and Allied Activities,JASAIDI HOUSE P O DISHERGARH     BURDWAN   WB IN 713333,RoC-Kolkata,debasishkr@rediffmail.com,31-03-2017,31-03-2017
U01222WB1973PLC029137,ARAMBAGH HATCHERIES LTD,Active,Public,Company limited by Shares,Non-govt company,15-12-1973,West Bengal,50000000,30120000,`01222,Agriculture and Allied Activities,"P O ARAMBAGH, DIST HOOGHLY           WB IN 712601",RoC-Kolkata,secretarial@arambagh.com,31-03-2017,31-03-2017
U01222WB1974PTC029167,ELECTRONIC MEASUREMENT INDIA PVT LTD,Strike Off,Private,Company limited by Shares,Non-govt company,07-01-1974,West Bengal,100000000,100000000,`01222,Agriculture and Allied Activities,2/2  RANI SANKARI LANE       KOLKATA   WB IN 700026,RoC-Kolkata,subrat_1232001@yahoo.com,NA,NA
U01222WB1977PTC031183,GROW-WELL HATCHERIES PVTLTD,Strike Off,Private,Company limited by Shares,Non-govt company,30-09-1977,West Bengal,1000000,200000,`01222,Agriculture and Allied Activities,6B  SIR DEBA PRASAD ROAD       KOLKATA   WB IN 700014,RoC-Kolkata,NA,NA,NA
U01222WB1982PLC035500,URBAN HI-BREED FARM LTD,Active,Public,Company limited by Shares,Non-govt company,01-12-1982,West Bengal,2400000,520000,`01222,Agriculture and Allied Activities,22 R N MUKHERJEE ROAD       KOLKATA   WB IN 700001,RoC-Kolkata,urbanhibreed@yahoo.com,31-03-2017,31-03-2017
U01222WB1985PLC089154,THE WEST BENGAL POWER DEVELOPMENT CORPOR ATION LIMITED,Strike Off,Public,Company limited by Shares,Non-govt company,05-07-1985,West Bengal,20000000000,18567722000,`01222,Agriculture and Allied Activities,"NEW SECRETARIAT BUILDINGS, 6TH FLOOR, BLOCK -B, 1, KIRAN SHANKAR ROY ROAD,     KOLKATA   WB IN 700001",RoC-Kolkata,NA,NA,NA
U01222WB1985PTC039502,NALIKUL HATCHERIES PVT LTD,Strike Off,Private,Company limited by Shares,Non-govt company,13-09-1985,West Bengal,500000,200000,`01222,Agriculture and Allied Activities,VILL OLIPURPO OLIPUR NAYAYAGAR       HOOGHLY   WB IN 000000,RoC-Kolkata,NA,NA,NA
U01222WB1985PTC039711,HOWRAH HY-GROW HATCHERIES PVT LTD,Strike Off,Private,Company limited by Shares,Non-govt company,06-11-1985,West Bengal,2000000,1000000,`01222,Agriculture and Allied Activities,165 NETAJI SUBHAS ROAD       HOWRAH   WB IN 711101,RoC-Kolkata,NA,NA,NA
U01222WB1986PTC040781,BURDWAN HATCHERIES PVT. LTD.,Active,Private,Company limited by Shares,Non-govt company,10-06-1986,West Bengal,2200000,1383500,`01222,Agriculture and Allied Activities,66A  TALTALA LIBRARY ROW       KOLKATA   WB IN 713101,RoC-Kolkata,tapasbanerjee123@gmail.com,31-03-2017,31-03-2017
U01222WB1987PTC042065,KISHALAYA KRISHISHILPA UDYOG PVT. LTD.,Strike Off,Private,Company limited by Shares,Non-govt company,17-03-1987,West Bengal,50000,1000,`01222,Agriculture and Allied Activities,MONDALGATHI PO BAMANGACHIP S BARASAAT       24 PGS   WB IN 000000,RoC-Kolkata,NA,NA,NA
U01222WB1987PTC043243,EVEREST FEEDS PVT LTD,Strike Off,Private,Company limited by Shares,Non-govt company,06-11-1987,West Bengal,500000,200000,`01222,Agriculture and Allied Activities,NEHRU ROAD       SILIGURI -5   WB IN 000000,RoC-Kolkata,NA,NA,NA
U01222WB1989PLC046485,SUNDEEP MERCANTILE LTD,Strike Off,Public,Company limited by Shares,Non-govt company,16-03-1989,West Bengal,1000000,600000,`01222,Agriculture and Allied Activities,178  MAHATMA GANDHI ROAD       KOLKATA   WB IN 700007,RoC-Kolkata,NA,NA,NA
U01222WB1989PTC047118,CHOTANAGPUR POULTRY FARM PVT LTD,Strike Off,Private,Company limited by Shares,Non-govt company,27-06-1989,West Bengal,100000,20000,`01222,Agriculture and Allied Activities,11A PALM AVENUE       KOLKATA   WB IN 000000,RoC-Kolkata,NA,NA,NA
U01222WB1989PTC047309,MANKAR POULTRY PVT LTD,Active,Private,Company limited by Shares,Non-govt company,28-07-1989,West Bengal,4500000,1189900,`01222,Agriculture and Allied Activities,E-9 Columbia Street Bidhannagar     Durgapur   WB IN 713212,RoC-Kolkata,mankarpoultry@rediffmail.com,31-03-2017,31-03-2017
U01222WB1989PTC047908,HIMALAYAN BREEDING FARMS PVT LTD,Strike Off,Private,Company limited by Shares,Non-govt company,23-11-1989,West Bengal,1500000,100000,`01222,Agriculture and Allied Activities,2/5 SARAT BOSE ROADSUKHSADAN 2ND FLOOR       KOLKATA   WB IN 700020,RoC-Kolkata,NA,NA,NA
U01222WB1990PTC048508,MIDNAPORE HATCHERIES PVT LTD,Active,Private,Company limited by Shares,Non-govt company,05-03-1990,West Bengal,6000000,2502600,`01222,Agriculture and Allied Activities,30 AHIPUKUR ROAD P S KARAYA     KOLKATA   WB IN 700019,RoC-Kolkata,mhplindia@gmail.com,31-03-2017,31-03-2017
U01222WB1990PTC049205,GITA HATCHERIES PVT LTD,Strike Off,Private,Company limited by Shares,Non-govt company,08-06-1990,West Bengal,500000,500000,`01222,Agriculture and Allied Activities,GORABAZAR MUNICIPAL MARKETROOM NO  5&6 (1ST FLOOR) STATION ROAD     KOLKATA   WB IN 700028,RoC-Kolkata,mca_amm@rediffmail.com,31-03-2008,31-03-2008
U01222WB1990PTC049912,HOWRAH AGRICO BROILER PVT LTD,Strike Off,Private,Company limited by Shares,Non-govt company,21-09-1990,West Bengal,300000,200000,`01222,Agriculture and Allied Activities,MOURIGRAM STATION ROAD UNSANISASTITALA       HOWRAH   WB IN 000000,RoC-Kolkata,NA,NA,NA
U01222WB1991PTC053481,JORRINE CARBON PVT. LTD.,Strike Off,Private,Company limited by Shares,Non-govt company,04-11-1991,West Bengal,1000000,200000,`01222,Agriculture and Allied Activities,39  STRAND ROAD       KOLKATA   WB IN 700001,RoC-Kolkata,NA,NA,NA
U01222WB1991PTC053599,K MEDIA PVT. LTD.,Strike Off,Private,Company limited by Shares,Non-govt company,20-11-1991,West Bengal,100000,1771,`01222,Agriculture and Allied Activities,CE-114 SALT LAKE CAL-64W.E.F.09.09.2000 P.S.BIDHAN NAGAR     P.S.BIDHAN NAGAR   WB IN 000000,RoC-Kolkata,NA,NA,NA
U01222WB1992PTC054109,CONTAI TRADING CO PVT LTD,Strike Off,Private,Company limited by Shares,Non-govt company,13-01-1992,West Bengal,200000,25000,`01222,Agriculture and Allied Activities,SHIHD KSHUDI RAM BASU ROADPO CONTAI       MIDNAPUR   WB IN 000000,RoC-Kolkata,NA,NA,NA
U01222WB1992PTC054417,PRATIDIN PRAKASHANI PRIVATE LIMITED,Active,Private,Company limited by Shares,Non-govt company,12-02-1992,West Bengal,60000000,33800200,`01222,Agriculture and Allied Activities,20 PRAFULLA SARKAR STREET       KOLKATA   WB IN 700072,RoC-Kolkata,subhajitroy19@gmail.com,31-03-2017,31-03-2017
U01222WB1992PTC090442,CASTLE CONSULTANTS PRIVATE LIMITED,Active,Private,Company limited by Shares,Non-govt company,27-05-1992,West Bengal,10000000,9975000,`01222,Agriculture and Allied Activities,30 CHITTARANJAN AVENUE2ND FLOOR       KOLKATA   WB IN 700012,RoC-Kolkata,mmco@mmcoca.com,31-03-2017,31-03-2017
U01222WB1993PLC060149,ROHAN AQUA LTD,Strike Off,Public,Company limited by Shares,Non-govt company,17-09-1993,West Bengal,10000000,8500000,`01222,Agriculture and Allied Activities,H B 9 SECTOR 111SALT LAKE CITY       KOLKATA   WB IN 700106,RoC-Kolkata,NA,NA,NA
U01222WB1994PTC061483,KRIPS CONFECTIONERIES PVT. LTD.,Strike Off,Private,Company limited by Shares,Non-govt company,18-01-1994,West Bengal,1000000,500000,`01222,Agriculture and Allied Activities,35/1  J L NEHRU ROAD       KOLKATA   WB IN 700071,RoC-Kolkata,NA,NA,NA
U01222WB1994PTC063334,UNIQUE POULTRY FARM PVT LTD,Strike Off,Private,Company limited by Shares,Non-govt company,27-05-1994,West Bengal,100000,2000,`01222,Agriculture and Allied Activities,Z/4/125 RIVERSIDE RD.       KOLKATA   WB IN 700044,RoC-Kolkata,NA,NA,NA
U01222WB1994PTC063368,HENERY CHICKS PVT LTD,Dissolved,Private,Company limited by Shares,Non-govt company,30-05-1994,West Bengal,5000000,6000,`01222,Agriculture and Allied Activities,114A MATHESWARTOLLA RD       KOLKATA   WB IN 700046,RoC-Kolkata,NA,NA,NA
U01222WB1995PLC070813,TRANSNATION BIOTECH LTD,Strike Off,Public,Company limited by Shares,Non-govt company,04-04-1995,West Bengal,10000000,200000,`01222,Agriculture and Allied Activities,64 BENTICK STREET P S HARE STREET     KOLKATA   WB IN 700069,RoC-Kolkata,NA,NA,NA
U01222WB1995PLC071744,HARITIMA AGRO-DEVELOPMENT & RESORTS LTD,Strike Off,Public,Company limited by Shares,Non-govt company,24-05-1995,West Bengal,1000000,500000,`01222,Agriculture and Allied Activities,71  B R B BASU RD B BLOCKR N B 404       KOLKATA   WB IN 700001,RoC-Kolkata,NA,NA,NA
U01222WB1995PTC067044,BOSE AGROTECH PVT. LTD.,Active,Private,Company limited by Shares,Non-govt company,02-01-1995,West Bengal,500000,401300,`01222,Agriculture and Allied Activities,DIAMOND HARBOUR ROADPAILAN PO-RASHPUNJA     24 PGS (S)   WB IN 743512,RoC-Kolkata,pradeepa499@gmail.com,31-03-2017,31-03-2017
U01222WB1995PTC069316,SWAGAT FOOD PRODUCTS PVT LTD,Active,Private,Company limited by Shares,Non-govt company,13-03-1995,West Bengal,1500000,519000,`01222,Agriculture and Allied Activities,VIDHYASAGAR RD  KHALPARASILIGURI       DARJEELING   WB IN 734405,RoC-Kolkata,vedgoel2002@gmail.com,31-03-2017,31-03-2017
U01222WB1995PTC071128,LOPAMUDRA EQUIPMENTS PVT.LTD.,Strike Off,Private,Company limited by Shares,Non-govt company,19-04-1995,West Bengal,1000000,200000,`01222,Agriculture and Allied Activities,BHATCHALA RANIRMATH STADIUMP O SRIPALLY       BURDWAN   WB IN 000000,RoC-Kolkata,NA,NA,NA
U01222WB1995PTC071201,P.C. COMBINES PVT.LTD.,Strike Off,Private,Company limited by Shares,Non-govt company,25-04-1995,West Bengal,12000000,200000,`01222,Agriculture and Allied Activities,5F AVEREST 5/F46/C CHOWRINHEE RD       KOLKATA   WB IN 700017,RoC-Kolkata,NA,NA,NA
U01222WB1995PTC071351,CRYSTAL TRADEFIN PVT.LTD.,Active,Private,Company limited by Shares,Non-govt company,04-05-1995,West Bengal,5000000,5000000,`01222,Agriculture and Allied Activities,"12A,JAMADAR KHAN LANE,GHAR DWAR APPARMENT 4TH FLOOR,KOLKATA     KOLKATA   WB IN 700019",RoC-Kolkata,vijaykumarpandey76@gmail.com,31-03-2017,31-03-2017
U01222WB1995PTC071916,SUMI AQUATIC (INDIA) PVT.LTD.,Strike Off,Private,Company limited by Shares,Non-govt company,02-06-1995,West Bengal,1000000,200000,`01222,Agriculture and Allied Activities,71D NETAJI SUBHAS RD       KOLKATA   WB IN 700001,RoC-Kolkata,NA,NA,NA
U01222WB1995PTC072338,MK PURELINE FARMS PVT LTD,Active,Private,Company limited by Shares,Non-govt company,26-06-1995,West Bengal,10000000,7122500,`01222,Agriculture and Allied Activities,"P/1/2 SARKAR BOSE ROAD SWASTIKA HOUSING COOPERATIVE SOCIETY, 4TH FLOOR     KOLKATA   WB IN 700027",RoC-Kolkata,chirayu.firms@gmail.com,31-03-2017,31-03-2017
U01222WB1995PTC074984,TEESTA AGRI TECH PVT.LTD.,Strike Off,Private,Company limited by Shares,Non-govt company,19-10-1995,West Bengal,2000000,1000,`01222,Agriculture and Allied Activities,DINBAZAR       DIST JALPAIGURI   WB IN 000000,RoC-Kolkata,NA,NA,NA
U01222WB1995PTC075407,MURSHIDABAD PIGGERY & ALLIED FARMS PVT.L TD.,Strike Off,Private,Company limited by Shares,Non-govt company,17-11-1995,West Bengal,500000,200000,`01222,Agriculture and Allied Activities,8 DHANAPATI BABU LANECOSSIMBAZAR RAJ       MURSHIDABAD   WB IN 000000,RoC-Kolkata,NA,NA,NA
U01222WB1996PTC077283,PIONEER HATCHERY PVT LTD,Strike Off,Private,Company limited by Shares,Non-govt company,15-02-1996,West Bengal,1000000,4000,`01222,Agriculture and Allied Activities,41/64 CHARU AVENUE       KOLKATA   WB IN 700033,RoC-Kolkata,NA,NA,NA
U01222WB1996PTC077458,ASANSOL FARM HOUSE PVT LTD,Strike Off,Private,Company limited by Shares,Non-govt company,20-02-1996,West Bengal,500000,200000,`01222,Agriculture and Allied Activities,PURNIMA HOUSING1 NOMOHISILA  COLONY P O ASANSOL     BURDWAN   WB IN 000000,RoC-Kolkata,NA,NA,NA
U01222WB1996PTC077693,HOOGHLY FARM HOUSE PVT LTD,Strike Off,Private,Company limited by Shares,Non-govt company,28-02-1996,West Bengal,1000000,500,`01222,Agriculture and Allied Activities,9C ESPLANADE ROW EASTR N  13       KOLKATA   WB IN 700069,RoC-Kolkata,NA,NA,NA
U01222WB1996PTC082027,SKYLINE HATCHERIES PRIVATE LIMITED,Strike Off,Private,Company limited by Shares,Non-govt company,13-11-1996,West Bengal,3000000,2224000,`01222,Agriculture and Allied Activities,KHALISANI BAGAN BATIP S CHANDANNAGORE       HOOGLY   WB IN 712138,RoC-Kolkata,NA,NA,NA
U01222WB1997PTC082485,DURGAPUR HATCHERIES PRIVATE LIMITED,Strike Off,Private,Company limited by Shares,Non-govt company,02-01-1997,West Bengal,500000,6000,`01222,Agriculture and Allied Activities,"D-28, R.S. BITHICITY CENTRE       DURGAPUR   WB IN 713205",RoC-Kolkata,NA,NA,NA
U01222WB1997PTC084697,SSB POULTRY & FARMING PRIVATE LIMITED,Strike Off,Private,Company limited by Shares,Non-govt company,20-06-1997,West Bengal,1000000,100000,`01222,Agriculture and Allied Activities,PLOT NO   1143VILL.  TENGRAMARI P O BODHRA MIDNAPORE     MIDNAPUR   WB IN 721423,RoC-Kolkata,NA,NA,NA
U01222WB1997PTC085447,POPULAR POULTRY FARM AND HATCHERIES PVT. LTD.,Strike Off,Private,Company limited by Shares,Non-govt company,15-09-1997,West Bengal,2000000,1735000,`01222,Agriculture and Allied Activities,48  BALLYGUNGE PLACE       KOLKATA   WB IN 700019,RoC-Kolkata,uroychowdhury06@yahoo.co.in,31-03-2009,31-03-2009
U01222WB1997PTC085788,MIDNAPORE AGRO UNITED HATCHERY PRIVATE LIMITED,Active,Private,Company limited by Shares,Non-govt company,28-10-1997,West Bengal,1000000,1000000,`01222,Agriculture and Allied Activities,KAKTIA NONAPUKUR BAZAR       MIDNAPUR   WB IN 000000,RoC-Kolkata,samanatanaren1@gmail.com,31-03-2016,31-03-2016
U01222WB1997PTC085869,HARCO ANIMAL RESOURCES COMPANY PRIVATE LIMITED,Active,Private,Company limited by Shares,Non-govt company,11-11-1997,West Bengal,1500000,1400000,`01222,Agriculture and Allied Activities,Chatterjee Para P.O. Madanpur     Nadia   WB IN 741245,RoC-Kolkata,harcoanimal@gmail.com,31-03-2017,31-03-2017
U01222WB1998PTC086707,GOPALPUR HATCHERY & ALLIED PRODUCTS PRIV ATE LIMITED,Strike Off,Private,Company limited by Shares,Non-govt company,05-03-1998,West Bengal,500000,30000,`01222,Agriculture and Allied Activities,VILL. & P O GOPALPURDURGAPUR       DIST BURDWAN   WB IN 000000,RoC-Kolkata,NA,NA,NA
U01222WB1998PTC086810,RAJLAXMI HATCHERIES PRIVATE LIMITED,Strike Off,Private,Company limited by Shares,Non-govt company,24-03-1998,West Bengal,7000000,200000,`01222,Agriculture and Allied Activities,RUPNARAYANPUR  N H 6P O  JAKPUR       MIDNAPUR   WB IN 000000,RoC-Kolkata,NA,NA,NA
U01222WB1998PTC087001,GREENVIEW BROILER PRIVATE LIMITED,Strike Off,Private,Company limited by Shares,Non-govt company,22-04-1998,West Bengal,1000000,3000,`01222,Agriculture and Allied Activities,590 KUNDUGOLIP O BUROSHIBTALA CHINSURAH     DIST  HOOGHLY   WB IN 000000,RoC-Kolkata,NA,NA,NA
U01222WB1998PTC087868,MOGRA CHICKS PRIVATE LIMITED,Strike Off,Private,Company limited by Shares,Non-govt company,03-09-1998,West Bengal,200000,200000,`01222,Agriculture and Allied Activities,G T ROAD  HOSPITAL MOREP O  MOGRA       HOOGHLY   WB IN 712148,RoC-Kolkata,NA,NA,NA
U01222WB1998PTC087871,MAITY POULTRIES PRIVATE LIMITED,Active,Private,Company limited by Shares,Non-govt company,04-09-1998,West Bengal,15000000,12622000,`01222,Agriculture and Allied Activities,VILL- KUMARPURP0 PANCHKHURI       MIDNAPORE   WB IN 721150,RoC-Kolkata,tkmandalco@yahoo.com,31-03-2017,31-03-2017
U01222WB1998PTC088192,AN HOUR SOLUTION PRIVATE LIMITED,Active,Private,Company limited by Shares,Non-govt company,03-11-1998,West Bengal,5000000,2965000,`01222,Agriculture and Allied Activities,"PREMISES NO. - GN 27, SECTOR-V, SALTLAKE CITY,       Kolkata Kolkata WB IN 700091",RoC-Kolkata,administrator.sndas@facility-groups.com,31-03-2017,31-03-2017
U01222WB1999PTC088903,ORISSA HATCHERIES PRIVATE LIMITED,Strike Off,Private,Company limited by Shares,Non-govt company,05-03-1999,West Bengal,1000000,10000,`01222,Agriculture and Allied Activities,2/98  AZADGARH       KOLKATA   WB IN 700040,RoC-Kolkata,NA,NA,NA
U01222WB1999PTC089686,DIGANTA ENTERPRISE PRIVATE LIMITED,Active,Private,Company limited by Shares,Non-govt company,22-06-1999,West Bengal,2000000,1800000,`01222,Agriculture and Allied Activities,"POST+ VILL PRATAPPUR, P.S -FARIDPUR DURGAPUR     DURGAPUR Bardhaman WB IN 713204",RoC-Kolkata,sugatacal123@gmail.com,31-03-2016,31-03-2016
U01222WB1999PTC089708,FLORENCE HATCHERIES PRIVATE LIMITED,Strike Off,Private,Company limited by Shares,Non-govt company,24-06-1999,West Bengal,1000000,3000,`01222,Agriculture and Allied Activities,4/1  J K GHOSH ROADBELGACHIA       KOLKATA   WB IN 700037,RoC-Kolkata,NA,NA,NA
U01222WB1999PTC089724,SA AGRO FARM PRIVATE LIMITED,Strike Off,Private,Company limited by Shares,Non-govt company,25-06-1999,West Bengal,2000000,400000,`01222,Agriculture and Allied Activities,24B SAYED AMIR ALI AVENUE       KOLKATA   WB IN 700017,RoC-Kolkata,NA,NA,NA
U01222WB1999PTC089865,PALASSEY AGRO FARMS PRIVATE LIMITED,Strike Off,Private,Company limited by Shares,Non-govt company,16-07-1999,West Bengal,2000000,500000,`01222,Agriculture and Allied Activities,C/O HAPCO ENTERPRISES27 WESTON STREET GROUND FLOOR       KOLKATA   WB IN 700012,RoC-Kolkata,NA,NA,NA
U01222WB1999PTC089975,ATS POULTRY AND EQUIPMENTS PRIVATE LIMIT ED,Strike Off,Private,Company limited by Shares,Non-govt company,30-07-1999,West Bengal,1000000,110000,`01222,Agriculture and Allied Activities,24/66  NABALIA PARA ROAD       KOLKATA   WB IN 700008,RoC-Kolkata,NA,NA,NA
U01222WB1999PTC089980,BARASAT FARM PRODUCTS PRIVATE LIMITED,Strike Off,Private,Company limited by Shares,Non-govt company,30-07-1999,West Bengal,500000,400000,`01222,Agriculture and Allied Activities,1  SCHOOL ROAD       KOLKATA   WB IN 700078,RoC-Kolkata,NA,NA,NA
U01222WB1999PTC089981,PANCHABOTI PARK & MANUFACTURERS PRIVATE LIMITED,Strike Off,Private,Company limited by Shares,Non-govt company,30-07-1999,West Bengal,1000000,40000,`01222,Agriculture and Allied Activities,A-10/70  KALYANI       NADIA   WB IN 000000,RoC-Kolkata,NA,NA,NA
U01222WB1999PTC090284,ABA FARMS PRIVATE LIMITED,Strike Off,Private,Company limited by Shares,Non-govt company,15-09-1999,West Bengal,1000000,200000,`01222,Agriculture and Allied Activities,2/5 SARAT BOSE ROAD 2ND FL       KOLKATA   WB IN 700020,RoC-Kolkata,NA,NA,NA
U01222WB2000PTC091004,KAMDHENU UDYOG PRIVATE LIMITED,Active,Private,Company limited by Shares,Non-govt company,25-01-2000,West Bengal,15000000,11400000,`01222,Agriculture and Allied Activities,"230A, AJC BOSE ROAD, 7TH FLOOR,CHITRAKUT BUILDING     KOLKATA   WB IN 700020",RoC-Kolkata,kupvt@vsnl.net,31-03-2017,31-03-2017
U01222WB2000PTC091438,APSARA STARCHICK BREEDERS PRIVATE LTD,Active,Private,Company limited by Shares,Non-govt company,23-03-2000,West Bengal,1000000,700000,`01222,Agriculture and Allied Activities,16 PALM AVENUE       KOLKATA   WB IN 700019,RoC-Kolkata,senter@vsnl.com,31-03-2017,31-03-2017
U01222WB2001PTC093292,IDEAL HATCHERIES PRIVATE LIMITED,Active,Private,Company limited by Shares,Non-govt company,12-06-2001,West Bengal,1000000,1000000,`01222,Agriculture and Allied Activities,276  ASTANA ROAD  P O  & P SBASIRHAT DIST 24 PGS       BASIRHAT DIST 24 PGS Parganas North WB IN 743411,RoC-Kolkata,ca.scmondal@gmail.com,31-03-2010,31-03-2015
U01222WB2001PTC093425,TAMLUK HATCHERY PRIVATE LIMITED,Strike Off,Private,Company limited by Shares,Non-govt company,09-07-2001,West Bengal,2000000,1780000,`01222,Agriculture and Allied Activities,VILL NONAKURI BAZARPO NONAKURI BAZAR PS TAMLUK     PURBA MIDNAPUR   WB IN 721137,RoC-Kolkata,SUPTARU@SANCHARNET.IN,31-03-2010,31-03-2010
U01222WB2001PTC093506,KORA HATCHERY PRIVATE LIMITED,Strike Off,Private,Company limited by Shares,Non-govt company,24-07-2001,West Bengal,500000,175000,`01222,Agriculture and Allied Activities,K 1 VIDYASAGAR NIKETANSALT LAKE       KOLKATA   WB IN 700064,RoC-Kolkata,NA,NA,NA
U01222WB2001PTC093612,POULFIS HATCHERIES PRIVATE LIMITED,Strike Off,Private,Company limited by Shares,Non-govt company,16-08-2001,West Bengal,1000000,100000,`01222,Agriculture and Allied Activities,BC 9 F 2 SECTOR ]1SALT LAKE CITY       BIDHANNAGAR   WB IN 700064,RoC-Kolkata,mca2010@sify.com,31-03-2010,31-03-2010
U01222WB2002PTC094393,GREEN HOUSE POULTRY AND SEED PRODUCTS PRIVATE LIMITED,Active,Private,Company limited by Shares,Non-govt company,20-03-2002,West Bengal,1000000,102000,`01222,Agriculture and Allied Activities,56 KANSARI PARA ROADBHOWANIPUR KALIGHAT     KOLKATA Kolkata WB IN 700025,RoC-Kolkata,d_bosea59@rediffmail.com,31-03-2015,31-03-2015
U01222WB2002PTC094552,SUNDARBAN HATCHERY PRIVATE LIMITED,Active,Private,Company limited by Shares,Non-govt company,24-04-2002,West Bengal,40000000,6452600,`01222,Agriculture and Allied Activities,73 TANUPUKUR ROAD DHAKURIA       KOLKATA   WB IN 700031,RoC-Kolkata,sundarbanhatchery@gmail.com,31-03-2017,31-03-2017
U01222WB2002PTC094902,MAXILIFE HATCHERY PRIVATE LIMITED,Strike Off,Private,Company limited by Shares,Non-govt company,16-07-2002,West Bengal,500000,200000,`01222,Agriculture and Allied Activities,BARMA COLONY P.O.SUBHAS GRAMP S BARAUPUR       SOUTH 24 PGS   WB IN 000000,RoC-Kolkata,NA,NA,NA
U01222WB2002PTC095014,BENGAL BREEDERS PRIVATE LIMITED,Active,Private,Company limited by Shares,Non-govt company,16-08-2002,West Bengal,20000000,18800000,`01222,Agriculture and Allied Activities,SHANTIPUR PO MECHEDA DT PURBA5 KOLAGHAT       MIDNAPORE   WB IN 721137,RoC-Kolkata,samantanaren1@gmail.com,31-03-2016,31-03-2016
U01222WB2003PTC095893,BHARATI POULTRY PRIVATE LIMITED,Active,Private,Company limited by Shares,Non-govt company,07-03-2003,West Bengal,20000000,17000000,`01222,Agriculture and Allied Activities,RASTOLAP S CHATNA BANKURA       BANKURA   WB IN 742110,RoC-Kolkata,bharatimotors.tata@gmail.com,31-03-2017,31-03-2017
U01222WB2003PTC096081,DANKUNI HATCHERIES PRIVATE LIMITED,Active,Private,Company limited by Shares,Non-govt company,10-04-2003,West Bengal,4000000,2100000,`01222,Agriculture and Allied Activities,VILL - KUMIRMORAH PO- JANAI     HOOGHLY   WB IN 712304,RoC-Kolkata,soumik_sinharoy@rediffmail.com,31-03-2017,31-03-2017
U01222WB2003PTC097005,PRAN ANIMAL & PLANT FARMING PRIVATE LIMITED,Active,Private,Company limited by Shares,Non-govt company,22-09-2003,West Bengal,1000000,100000,`01222,Agriculture and Allied Activities,SADAR PARA       PURULIAX   WB IN 723101,RoC-Kolkata,NA,NA,NA
U01222WB2004PTC097566,SURYANS FARMING PRIVATE LIMITED,Active,Private,Company limited by Shares,Non-govt company,02-01-2004,West Bengal,15000000,14666000,`01222,Agriculture and Allied Activities,"SHANTINIKETAN BUILDING, 7TH FLOOR, UNIT NO.707 8, ABANINDRANATH TAGORE SARANI, (CAMAC STREET)     KOLKATA Kolkata WB IN 700017",RoC-Kolkata,sanket@suryansfarming.in,31-03-2017,31-03-2017
U01222WB2004PTC097886,POULTRY BIO-RESEARCH PRIVATE LIMITED,Strike Off,Private,Company limited by Shares,Non-govt company,18-02-2004,West Bengal,500000,145000,`01222,Agriculture and Allied Activities,HARIPAL STATION BAZARP OKHAMARCHANDI       HOOGHLY   WB IN 712403,RoC-Kolkata,NA,NA,NA
U01222WB2004PTC098768,BHOLANATH AGRO POULTRY FARM PRIVATE LIMITED,Active,Private,Company limited by Shares,Non-govt company,01-06-2004,West Bengal,5000000,4065800,`01222,Agriculture and Allied Activities,"KERANITOLA, P.O. MIDNAPUR,DIST. PASCHIM MEDINIPUR P.S. KOTWALI-721101         WB IN 000000",RoC-Kolkata,tkmandalco@yahoo.com,31-03-2017,31-03-2017
U01222WB2004PTC100172,ARICA (DAIRY & FARMS) PRIVATE LIMITED,Strike Off,Private,Company limited by Shares,Non-govt company,18-10-2004,West Bengal,1500000,200000,`01222,Agriculture and Allied Activities,Q-310/B UMESH NEOGI ROADGARDEN REACH       KOLKATA   WB IN 700024,RoC-Kolkata,dinagarwal420@yahoo.com,31-03-2006,31-03-2006
U01222WB2005PTC105362,KAMARPUKUR HATCHERIES PRIVATE LIMITED,Active,Private,Company limited by Shares,Non-govt company,13-09-2005,West Bengal,3000000,100000,`01222,Agriculture and Allied Activities,R N U/6 ARAMBUGH PANCHAYETSAMITY MARKET COMPLEX BLOCK P ARA TOWN PO & PS ARAMBAGH     DIST HOOGHLY   WB IN 000000,RoC-Kolkata,kamarpukur@yahoo.com,31-03-2014,31-03-2014
U01222WB2005PTC105667,DOYEN POULTRY PRIVATE LIMITED,Strike Off,Private,Company limited by Shares,Non-govt company,28-09-2005,West Bengal,300000,100000,`01222,Agriculture and Allied Activities,VILL-BELPARA P O DAKHINDIHIDIST-HOOGHLY       DIST-HOOGHLY   WB IN 000000,RoC-Kolkata,COMPARE17@REDIFFMAIL.COM,NA,NA
U01222WB2005PTC106179,SANKRAIL AGRO POULTRIES PVT LTD,Active,Private,Company limited by Shares,Non-govt company,17-11-2005,West Bengal,50000000,48900000,`01222,Agriculture and Allied Activities,"VILL KUMARPUR,PO PANCHKHURI,PS KOTWALI, DIST PASCHIM MEDINIPUR,         WB IN 721150",RoC-Kolkata,tkmandalco@yahoo.com,31-03-2017,31-03-2017
U01222WB2006PTC107707,LAKSHMI VENKATESHWARA HATCHERIES PVT LTD,Active,Private,Company limited by Shares,Non-govt company,03-02-2006,West Bengal,10000000,10000000,`01222,Agriculture and Allied Activities,"53/7/3, BON BEHARI BOSE ROAD, RAMKRISHNAPUR       HOWRAH   WB IN 711101",RoC-Kolkata,motipoultrydeveloper@yahoo.in,31-03-2017,31-03-2017
U01222WB2006PTC108335,HIGAIN CHICKS & CHICKEN PVT LTD,Strike Off,Private,Company limited by Shares,Non-govt company,28-02-2006,West Bengal,3000000,100000,`01222,Agriculture and Allied Activities,VILL PO DAKSHIN ROSULPURARAMBAGH       HOOGHLY   WB IN 000000,RoC-Kolkata,ca.bsandco@gmail.com,31-03-2011,31-03-2011
U01222WB2006PTC108647,DIYA FEEDS & POULTRY PVT LTD,Strike Off,Private,Company limited by Shares,Non-govt company,22-03-2006,West Bengal,500000,200000,`01222,Agriculture and Allied Activities,PANDAPARA RDSIBAJI LANE       JALPAIGURI   WB IN 735101,RoC-Kolkata,NA,NA,NA
U01222WB2006PTC110808,RANJEET POULTRY PRIVATE LIMITED,Active,Private,Company limited by Shares,Non-govt company,27-07-2006,West Bengal,4000000,4000000,`01222,Agriculture and Allied Activities,KUMARPUR PANCHKHURI     Midnapore West   WB IN 721150,RoC-Kolkata,agarwalmitesh81@gmail.com,31-03-2017,31-03-2017
U01222WB2007PLC120542,MEDINIPUR AGRO POULTRIES LIMITED,Active,Public,Company limited by Shares,Non-govt company,23-11-2007,West Bengal,3000000,642000,`01222,Agriculture and Allied Activities,"Village - Kumarpur, P.O.- Panchkhuri, P.S.- Kotwali, Dist.- Paschim Medinipur.     Paschim Medinipur   WB IN 721150",RoC-Kolkata,tkmandalco@yahoo.com,31-03-2017,31-03-2017
U01222WB2007PTC114704,BHAGAWATI HATCHERIES PRIVATE LIMITED,Strike Off,Private,Company limited by Shares,Non-govt company,27-03-2007,West Bengal,1500000,0,`01222,Agriculture and Allied Activities,"VILL: PRAYAGPUR, P.O: PANAGARH BAZAR DIST: BURDWAN     PANAGARH Bardhaman WB IN 713148",RoC-Kolkata,ARVIND_KANODIA@HOTMAIL.COM,NA,NA
U01222WB2007PTC116407,SAKSHI MERCHANTS PRIVATE LIMITED,Active,Private,Company limited by Shares,Non-govt company,08-06-2007,West Bengal,5000000,4230000,`01222,Agriculture and Allied Activities,"61, BENTICK STREET       KOLKATA   WB IN 700069",RoC-Kolkata,jaydipmj@gmail.com,31-03-2017,31-03-2017
U01222WB2007PTC118047,DENI PIGGERY FARM AND MEAT PROCESSING PL ANT PRIVATE LIMITED,Strike Off,Private,Company limited by Shares,Non-govt company,23-08-2007,West Bengal,1000000,100000,`01222,Agriculture and Allied Activities,"108, B.T.ROAD       KOLKATA   WB IN 700108",RoC-Kolkata,satish@srkco.com,31-03-2013,31-03-2013
U01222WB2007PTC120039,ASHA EDUCARE PRIVATE LIMITED,Active,Private,Company limited by Shares,Non-govt company,25-10-2007,West Bengal,5000000,720000,`01222,Agriculture and Allied Activities,"46A/33/3, SHIBPUR ROAD       HOWRAH   WB IN 711102",RoC-Kolkata,avijitghosh123@yahoo.co.in,31-03-2017,31-03-2017
U01222WB2007PTC120366,QUALIX POULTRY PRIVATE LIMITED,Under Process of Striking off,Private,Company limited by Shares,Non-govt company,15-11-2007,West Bengal,3000000,2800000,`01222,Agriculture and Allied Activities,"WESTWIND, BLOCK-7, FLAT-12B 78, RAJA S.C. MULLICK ROAD     KOLKATA Kolkata WB IN 700084",RoC-Kolkata,bpdkolkata@hotmail.com,31-03-2017,31-03-2017
U01222WB2007PTC120494,SARKAR AGRO POULTRIES PRIVATE LIMITED,Active,Private,Company limited by Shares,Non-govt company,21-11-2007,West Bengal,25000000,20000000,`01222,Agriculture and Allied Activities,"VILLAGE - AKHINA, P.O.- NOLEY DISTRICT - BURDWAN     BURDWAN   WB IN 713424",RoC-Kolkata,tkmandalco@yahoo.com,31-03-2017,31-03-2017
U01222WB2007PTC121146,RAJ HATCHERIES (BENGAL) PRIVATE LIMITED,Active,Private,Company limited by Shares,Non-govt company,20-12-2007,West Bengal,11000000,11000000,`01222,Agriculture and Allied Activities,"VILLAGE- TAJPUR, P.O.- BODHRA P.S.- RAMNAGAR , DISTRICT-PURBA MEDINIPUR     RAMNAGAR   WB IN 721423",RoC-Kolkata,samyin@vsnl.net,31-03-2017,31-03-2017
U01222WB2008PTC121733,MATARA AQUACULTURE WEST BENGAL PRIVATE LIMITED,Active,Private,Company limited by Shares,Non-govt company,15-01-2008,West Bengal,90000000,90000000,`01222,Agriculture and Allied Activities,"VILL.- GIRICHAK, P.O.-NARGHAT L.S. P.S.- NANDAKUMAR, DIST.- PURBA MEDINIPUR     PURBA MEDINIPUR   WB IN 721669",RoC-Kolkata,lawanirban@gmail.com,31-03-2015,31-03-2016
